\relax 
\babel@aux{english}{}
\@writefile{toc}{\contentsline {section}{\numberline {1}Introduction}{1}}
\@writefile{toc}{\contentsline {section}{\numberline {2}Monetary Theory and Policy (Sargent, Ljungqvist Ch. 26)}{1}}
\@writefile{toc}{\contentsline {subsection}{\numberline {2.1}Introduction}{1}}
\@writefile{toc}{\contentsline {subsection}{\numberline {2.2}Money in the utility function}{1}}
\@writefile{lof}{\contentsline {figure}{\numberline {1}{\ignorespaces Special case of Homothetic functions}}{4}}
\newlabel{fig1}{{1}{4}}
\@writefile{toc}{\contentsline {subsection}{\numberline {2.3}Welfare Cost of Inflation}{5}}
\@writefile{lof}{\contentsline {figure}{\numberline {2}{\ignorespaces Relation between interest rates and real balances/income (from Lucas (2000)}}{7}}
\newlabel{lucas}{{2}{7}}
\@writefile{lof}{\contentsline {figure}{\numberline {3}{\ignorespaces Graphic for specifications of Lucas (2000)}}{7}}
\newlabel{lucasspec}{{3}{7}}
\@writefile{lof}{\contentsline {figure}{\numberline {4}{\ignorespaces Ireland (2009) data}}{7}}
\newlabel{ireland1}{{4}{7}}
\@writefile{lof}{\contentsline {figure}{\numberline {5}{\ignorespaces Lucas and Nicolini (2015) data}}{8}}
\newlabel{lucasnicolini1}{{5}{8}}
\@writefile{toc}{\contentsline {subsection}{\numberline {2.4}Monetary RBC Models}{8}}
\@writefile{lof}{\contentsline {figure}{\numberline {6}{\ignorespaces Inflation and GDP}}{8}}
\newlabel{irf}{{6}{8}}
\@writefile{toc}{\contentsline {subsection}{\numberline {2.5}Monopolistic Competition (Dixit and Stiglitz)}{10}}
\@writefile{toc}{\contentsline {subsubsection}{\numberline {2.5.1}Model}{10}}
\@writefile{toc}{\contentsline {subsubsection}{\numberline {2.5.2}Benchmark Model}{11}}
\@writefile{toc}{\contentsline {subsection}{\numberline {2.6}Sticky Prices Within Period}{11}}
\@writefile{toc}{\contentsline {subsection}{\numberline {2.7}Dynamics}{12}}
\@writefile{toc}{\contentsline {subsubsection}{\numberline {2.7.1}Flexible Prices}{12}}
\@writefile{toc}{\contentsline {subsubsection}{\numberline {2.7.2}Sticky Prices}{13}}
\@writefile{toc}{\contentsline {subsubsection}{\numberline {2.7.3}Staggered price adjustement}{14}}
\@writefile{lof}{\contentsline {figure}{\numberline {7}{\ignorespaces Price change examples}}{14}}
\newlabel{pricechanges}{{7}{14}}
\@writefile{toc}{\contentsline {subsection}{\numberline {2.8}New Keynesian Phillips Curve (NKPC)}{16}}
\@writefile{lof}{\contentsline {figure}{\numberline {8}{\ignorespaces Adjustment Dynamics}}{17}}
\@writefile{toc}{\contentsline {subsection}{\numberline {2.9}Adjustment Dynamics}{17}}
\@writefile{toc}{\contentsline {subsection}{\numberline {2.10}Complementarities in price adjustment}{18}}
\@writefile{toc}{\contentsline {subsubsection}{\numberline {2.10.1}Primitive Forces for Complementarity}{19}}
\@writefile{toc}{\contentsline {subsubsection}{\numberline {2.10.2}Forces for Sustitutability}{19}}
\@writefile{toc}{\contentsline {subsection}{\numberline {2.11}New Keynesian Model}{20}}
\@writefile{toc}{\contentsline {section}{\numberline {3}Money Empirics}{21}}
\@writefile{toc}{\contentsline {subsection}{\numberline {3.1}Money in the Long Run}{21}}
\@writefile{toc}{\contentsline {subsection}{\numberline {3.2}Methodology}{21}}
\@writefile{toc}{\contentsline {subsection}{\numberline {3.3}Role of Money in the Business Cycle}{23}}
\@writefile{toc}{\contentsline {subsubsection}{\numberline {3.3.1}Correlation Analysis}{23}}
\@writefile{toc}{\contentsline {subsubsection}{\numberline {3.3.2}Econometric Models}{23}}
\@writefile{toc}{\contentsline {subsection}{\numberline {3.4}The VAR Approach of Money}{24}}
\@writefile{toc}{\contentsline {subsubsection}{\numberline {3.4.1}Example: a VAR on Product and Money}{24}}
\@writefile{toc}{\contentsline {subsection}{\numberline {3.5}The Recursive Assumption}{25}}
\@writefile{toc}{\contentsline {subsection}{\numberline {3.6}VAR issues}{26}}
\@writefile{toc}{\contentsline {subsection}{\numberline {3.7}Back to the New Keynesian Model}{27}}
\@writefile{toc}{\contentsline {subsection}{\numberline {3.8}Evaluating the NKPC}{27}}
\@writefile{toc}{\contentsline {subsection}{\numberline {3.9}The Hybrid NKPC}{28}}
\@writefile{toc}{\contentsline {subsection}{\numberline {3.10}Analysis}{28}}
\@writefile{toc}{\contentsline {section}{\numberline {4}Equilibrium Stability, Determinacy and Policy}{29}}
